{"help": "https://data.gov.sg/api/3/action/help_show?name=datastore_search", "success": true, "result": {"resource_id": "0ebc5a8f-0d01-48d4-8c4e-3ec68b993779", "fields": [{"type": "int4", "id": "_id"}, {"type": "numeric", "id": "year"}, {"type": "text", "id": "type_of_donation"}, {"type": "numeric", "id": "count"}], "records": [{"count": "99355", "_id": 1, "type_of_donation": "Whole Blood", "year": "2010"}, {"count": "10685", "_id": 2, "type_of_donation": "Apheresis", "year": "2010"}, {"count": "104895", "_id": 3, "type_of_donation": "Whole Blood", "year": "2011"}, {"count": "10229", "_id": 4, "type_of_donation": "Apheresis", "year": "2011"}, {"count": "108593", "_id": 5, "type_of_donation": "Whole Blood", "year": "2012"}, {"count": "9980", "_id": 6, "type_of_donation": "Apheresis", "year": "2012"}, {"count": "111626", "_id": 7, "type_of_donation": "Whole Blood", "year": "2013"}, {"count": "9734", "_id": 8, "type_of_donation": "Apheresis", "year": "2013"}, {"count": "108058", "_id": 9, "type_of_donation": "Whole Blood", "year": "2014"}, {"count": "9337", "_id": 10, "type_of_donation": "Apheresis", "year": "2014"}], "_links": {"start": "/api/action/datastore_search?resource_id=0ebc5a8f-0d01-48d4-8c4e-3ec68b993779", "next": "/api/action/datastore_search?offset=100&resource_id=0ebc5a8f-0d01-48d4-8c4e-3ec68b993779"}, "total": 10}}